RuleDslProgram (
    List (
        RuleDef (
            RuleId ("example01"),
            RuleBody (
                WhenExpr (TrueExpr ()),
                SelectionExpr (
                    DataSource ("products"),
                    WhereExpr (
                        OrExpr (
                            EqualsToExpr (
                                IdExpr ("artikeltype"),
                                StringLiteral ("shoe")),
                            NotEqualToExpr (
                                IdExpr ("category"),
                                StringLiteral ("C29_9IJ"))))))),
        RuleDef (
            RuleId ("example02"),
            RuleBody (
                WhenExpr (TrueExpr ()),
                SelectionExpr (
                    DataSource ("products"),
                    WhereExpr (
                        AndExpr (
                            NotEqualToExpr (
                                IdExpr ("artikeltype"),
                                StringLiteral ("shoe")),
                            NotEqualToExpr (
                                IdExpr ("category"),
                                StringLiteral ("C29_9IJ"))))))),
        RuleDef (
            RuleId ("example03"),
            RuleBody (
                WhenExpr (TrueExpr ()),
                SelectionExpr (
                    DataSource ("products"),
                    WhereExpr (
                        AndExpr (
                            NotEqualToExpr (
                                IdExpr ("artikeltype"),
                                StringLiteral ("shoe")),
                            InExpr (
                                IdExpr ("category"),
                                ValueList (
                                    List (StringLiteral ("C29_9IJ"))))))))),
        RuleDef (
            RuleId ("example04"),
            RuleBody (
                WhenExpr (TrueExpr ()),
                SelectionExpr (
                    DataSource ("products"),
                    WhereExpr (
                        OrExpr (
                            AndExpr (
                                EqualsToExpr (
                                    IdExpr ("artikeltype"),
                                    StringLiteral ("shoe")),
                                NotEqualToExpr (
                                    IdExpr ("category"),
                                    StringLiteral ("C29_9IJ"))),
                            NotEqualToExpr (
                                IdExpr ("category"),
                                StringLiteral ("CJ"))))))),
        RuleDef (
            RuleId ("example11"),
            RuleBody (
                WhenExpr (
                    AndExpr (
                        EqualsToExpr (
                            PropertyExpr (
                                IdExpr ("ctx"),
                                IdExpr ("brand")),
                            StringLiteral ("nike")),
                        NotEqualToExpr (
                            PropertyExpr (
                                IdExpr ("ctx"),
                                IdExpr ("brand")),
                            StringLiteral ("addidas")))),
                SelectionExpr (
                    DataSource ("products"),
                    WhereExpr (TrueExpr ())))),
        RuleDef (
            RuleId ("example22"),
            RuleBody (
                WhenExpr (
                    OrExpr (
                        NotEqualToExpr (
                            PropertyExpr (
                                IdExpr ("ctx"),
                                IdExpr ("brand")),
                            StringLiteral ("nike")),
                        InExpr (
                            PropertyExpr (
                                IdExpr ("ctx"),
                                IdExpr ("brand")),
                            ValueList (List (StringLiteral ("addidas")))))),
                SelectionExpr (
                    DataSource ("products"),
                    WhereExpr (TrueExpr ())))),
        RuleDef (
            RuleId ("example33"),
            RuleBody (
                WhenExpr (
                    AndExpr (
                        InExpr (
                            PropertyExpr (
                                IdExpr ("ctx"),
                                IdExpr ("brand")),
                            ValueList (
                                List (
                                    StringLiteral ("addidas"),
                                    StringLiteral ("nike")))),
                        EqualsToExpr (
                            PropertyExpr (
                                IdExpr ("ctx"),
                                IdExpr ("articleType")),
                            StringLiteral ("gadgets")))),
                SelectionExpr (
                    DataSource ("products"),
                    WhereExpr (TrueExpr ())))),
        RuleDef (
            RuleId ("example44"),
            RuleBody (
                WhenExpr (
                    AndExpr (
                        InExpr (
                            PropertyExpr (
                                IdExpr ("ctx"),
                                IdExpr ("brand")),
                            ValueList (
                                List (
                                    StringLiteral ("addidas"),
                                    StringLiteral ("nike")))),
                        OrExpr (
                            EqualsToExpr (
                                PropertyExpr (
                                    IdExpr ("ctx"),
                                    IdExpr ("articleType")),
                                StringLiteral ("gadgets")),
                            EqualsToExpr (
                                PropertyExpr (
                                    IdExpr ("ctx"),
                                    IdExpr ("articleType")),
                                StringLiteral ("cloths"))))),
                SelectionExpr (
                    DataSource ("products"),
                    WhereExpr (TrueExpr ())))),
        RuleDef (
            RuleId ("example5"),
            RuleBody (
                WhenExpr (
                    AndExpr (
                        EqualsToExpr (
                            PropertyExpr (
                                IdExpr ("ctx"),
                                IdExpr ("brand")),
                            StringLiteral ("nike")),
                        NotEqualToExpr (
                            PropertyExpr (
                                IdExpr ("ctx"),
                                IdExpr ("brand")),
                            StringLiteral ("addidas")))),
                SelectionExpr (
                    DataSource ("products"),
                    WhereExpr (
                        EqualsToExpr (
                            IdExpr ("artikeltype"),
                            StringLiteral ("shoe"))))))))